2023-12-12 20:52:19.201 +02:00 [INF] Calling service with {"Limit":10,"$type":"ListStudentParameter"}
2023-12-12 20:52:21.986 +02:00 [INF] Calling service ended
2023-12-12 20:52:22.450 +02:00 [INF] Calling service with {"Limit":10,"$type":"ListStudentParameter"}
2023-12-12 20:52:22.652 +02:00 [INF] Calling service ended
2023-12-12 20:52:43.342 +02:00 [INF] Calling service with {"Limit":10,"$type":"ListStudentParameter"}
2023-12-12 20:52:46.036 +02:00 [INF] Calling service ended
2023-12-12 20:52:46.400 +02:00 [INF] Calling service with {"Limit":10,"$type":"ListStudentParameter"}
2023-12-12 20:52:46.587 +02:00 [INF] Calling service ended
